"Offer Name", "Category", "URL", "Payout", "Offer Source", "Redirect Type (307,301,ultimate)"
Test Offer 1, My Test Category, http://www.offer1.com, 0.0, My Squeeze Pages, 301
Test Offer 2, My Test Category, http://www.offer2.com, 20.45, Bounty, 307
Test Offer 3, My Other Category, http://www.offer3.com, 12.20, CJ, ultimate